-- Merging decision tree log ---
manifest
ADDED from D:\Workspace\others\android\androidkejarxl\android-fundamentals-apps-v2\SimpleCalcTest\app\src\main\AndroidManifest.xml:17:1-34:12
INJECTED from D:\Workspace\others\android\androidkejarxl\android-fundamentals-apps-v2\SimpleCalcTest\app\src\main\AndroidManifest.xml:17:1-34:12
INJECTED from D:\Workspace\others\android\androidkejarxl\android-fundamentals-apps-v2\SimpleCalcTest\app\src\main\AndroidManifest.xml:17:1-34:12
INJECTED from D:\Workspace\others\android\androidkejarxl\android-fundamentals-apps-v2\SimpleCalcTest\app\src\main\AndroidManifest.xml:17:1-34:12
MERGED from [com.android.support:appcompat-v7:26.1.0] C:\Users\hwahyudi\.gradle\caches\transforms-1\files-1.1\appcompat-v7-26.1.0.aar\679403e083377848433831022a31082f\AndroidManifest.xml:17:1-31:12
MERGED from [com.android.support.constraint:constraint-layout:1.0.2] C:\Users\hwahyudi\.gradle\caches\transforms-1\files-1.1\constraint-layout-1.0.2.aar\327e9426568c6aec64c59a7acd061932\AndroidManifest.xml:2:1-11:12
MERGED from [com.android.support:animated-vector-drawable:26.1.0] C:\Users\hwahyudi\.gradle\caches\transforms-1\files-1.1\animated-vector-drawable-26.1.0.aar\caca83289075bfd560489ae0c3d827fe\AndroidManifest.xml:17:1-28:12
MERGED from [com.android.support:support-vector-drawable:26.1.0] C:\Users\hwahyudi\.gradle\caches\transforms-1\files-1.1\support-vector-drawable-26.1.0.aar\49efdd66a77f9b0a62c5d067e05e5604\AndroidManifest.xml:17:1-28:12
MERGED from [com.android.support:support-v4:26.1.0] C:\Users\hwahyudi\.gradle\caches\transforms-1\files-1.1\support-v4-26.1.0.aar\3b75dfa4794ed1a8f5d5dc58a72bb2d8\AndroidManifest.xml:17:1-31:12
MERGED from [com.android.support:support-media-compat:26.1.0] C:\Users\hwahyudi\.gradle\caches\transforms-1\files-1.1\support-media-compat-26.1.0.aar\4d5bf65c98f8ed79d1e194afdb6012a3\AndroidManifest.xml:17:1-31:12
MERGED from [com.android.support:support-fragment:26.1.0] C:\Users\hwahyudi\.gradle\caches\transforms-1\files-1.1\support-fragment-26.1.0.aar\5c20df0b0dc6958c530b8827f20e5a84\AndroidManifest.xml:17:1-31:12
MERGED from [com.android.support:support-core-utils:26.1.0] C:\Users\hwahyudi\.gradle\caches\transforms-1\files-1.1\support-core-utils-26.1.0.aar\d4fefee02956713761e37cb352a4944b\AndroidManifest.xml:17:1-31:12
MERGED from [com.android.support:support-core-ui:26.1.0] C:\Users\hwahyudi\.gradle\caches\transforms-1\files-1.1\support-core-ui-26.1.0.aar\6d901cd8a825ba95537b987b4426e930\AndroidManifest.xml:17:1-31:12
MERGED from [com.android.support:support-compat:26.1.0] C:\Users\hwahyudi\.gradle\caches\transforms-1\files-1.1\support-compat-26.1.0.aar\fb1c7ba8f398b3b6c2c0c0d0543994c4\AndroidManifest.xml:17:1-31:12
MERGED from [android.arch.lifecycle:runtime:1.0.0] C:\Users\hwahyudi\.gradle\caches\transforms-1\files-1.1\runtime-1.0.0.aar\e17ddab264a8963c44a1c3bcd1d2d0a5\AndroidManifest.xml:17:1-30:12
INJECTED from D:\Workspace\others\android\androidkejarxl\android-fundamentals-apps-v2\SimpleCalcTest\app\src\main\AndroidManifest.xml:17:1-34:12
INJECTED from D:\Workspace\others\android\androidkejarxl\android-fundamentals-apps-v2\SimpleCalcTest\app\src\main\AndroidManifest.xml:17:1-34:12
INJECTED from D:\Workspace\others\android\androidkejarxl\android-fundamentals-apps-v2\SimpleCalcTest\app\src\main\AndroidManifest.xml:17:1-34:12
	package
		ADDED from D:\Workspace\others\android\androidkejarxl\android-fundamentals-apps-v2\SimpleCalcTest\app\src\main\AndroidManifest.xml:18:5-49
		INJECTED from D:\Workspace\others\android\androidkejarxl\android-fundamentals-apps-v2\SimpleCalcTest\app\src\main\AndroidManifest.xml
		INJECTED from D:\Workspace\others\android\androidkejarxl\android-fundamentals-apps-v2\SimpleCalcTest\app\src\main\AndroidManifest.xml
	android:versionName
		INJECTED from D:\Workspace\others\android\androidkejarxl\android-fundamentals-apps-v2\SimpleCalcTest\app\src\main\AndroidManifest.xml
		ADDED from D:\Workspace\others\android\androidkejarxl\android-fundamentals-apps-v2\SimpleCalcTest\app\src\main\AndroidManifest.xml:17:1-34:12
		INJECTED from D:\Workspace\others\android\androidkejarxl\android-fundamentals-apps-v2\SimpleCalcTest\app\src\main\AndroidManifest.xml
	android:versionCode
		INJECTED from D:\Workspace\others\android\androidkejarxl\android-fundamentals-apps-v2\SimpleCalcTest\app\src\main\AndroidManifest.xml
		ADDED from D:\Workspace\others\android\androidkejarxl\android-fundamentals-apps-v2\SimpleCalcTest\app\src\main\AndroidManifest.xml:17:1-34:12
		INJECTED from D:\Workspace\others\android\androidkejarxl\android-fundamentals-apps-v2\SimpleCalcTest\app\src\main\AndroidManifest.xml
	xmlns:android
		ADDED from D:\Workspace\others\android\androidkejarxl\android-fundamentals-apps-v2\SimpleCalcTest\app\src\main\AndroidManifest.xml:17:11-69
application
ADDED from D:\Workspace\others\android\androidkejarxl\android-fundamentals-apps-v2\SimpleCalcTest\app\src\main\AndroidManifest.xml:20:5-32:19
MERGED from [com.android.support:appcompat-v7:26.1.0] C:\Users\hwahyudi\.gradle\caches\transforms-1\files-1.1\appcompat-v7-26.1.0.aar\679403e083377848433831022a31082f\AndroidManifest.xml:25:5-29:19
MERGED from [com.android.support:appcompat-v7:26.1.0] C:\Users\hwahyudi\.gradle\caches\transforms-1\files-1.1\appcompat-v7-26.1.0.aar\679403e083377848433831022a31082f\AndroidManifest.xml:25:5-29:19
MERGED from [com.android.support.constraint:constraint-layout:1.0.2] C:\Users\hwahyudi\.gradle\caches\transforms-1\files-1.1\constraint-layout-1.0.2.aar\327e9426568c6aec64c59a7acd061932\AndroidManifest.xml:9:5-20
MERGED from [com.android.support.constraint:constraint-layout:1.0.2] C:\Users\hwahyudi\.gradle\caches\transforms-1\files-1.1\constraint-layout-1.0.2.aar\327e9426568c6aec64c59a7acd061932\AndroidManifest.xml:9:5-20
MERGED from [com.android.support:animated-vector-drawable:26.1.0] C:\Users\hwahyudi\.gradle\caches\transforms-1\files-1.1\animated-vector-drawable-26.1.0.aar\caca83289075bfd560489ae0c3d827fe\AndroidManifest.xml:22:5-26:19
MERGED from [com.android.support:animated-vector-drawable:26.1.0] C:\Users\hwahyudi\.gradle\caches\transforms-1\files-1.1\animated-vector-drawable-26.1.0.aar\caca83289075bfd560489ae0c3d827fe\AndroidManifest.xml:22:5-26:19
MERGED from [com.android.support:support-vector-drawable:26.1.0] C:\Users\hwahyudi\.gradle\caches\transforms-1\files-1.1\support-vector-drawable-26.1.0.aar\49efdd66a77f9b0a62c5d067e05e5604\AndroidManifest.xml:22:5-26:19
MERGED from [com.android.support:support-vector-drawable:26.1.0] C:\Users\hwahyudi\.gradle\caches\transforms-1\files-1.1\support-vector-drawable-26.1.0.aar\49efdd66a77f9b0a62c5d067e05e5604\AndroidManifest.xml:22:5-26:19
MERGED from [com.android.support:support-v4:26.1.0] C:\Users\hwahyudi\.gradle\caches\transforms-1\files-1.1\support-v4-26.1.0.aar\3b75dfa4794ed1a8f5d5dc58a72bb2d8\AndroidManifest.xml:25:5-29:19
MERGED from [com.android.support:support-v4:26.1.0] C:\Users\hwahyudi\.gradle\caches\transforms-1\files-1.1\support-v4-26.1.0.aar\3b75dfa4794ed1a8f5d5dc58a72bb2d8\AndroidManifest.xml:25:5-29:19
MERGED from [com.android.support:support-media-compat:26.1.0] C:\Users\hwahyudi\.gradle\caches\transforms-1\files-1.1\support-media-compat-26.1.0.aar\4d5bf65c98f8ed79d1e194afdb6012a3\AndroidManifest.xml:25:5-29:19
MERGED from [com.android.support:support-media-compat:26.1.0] C:\Users\hwahyudi\.gradle\caches\transforms-1\files-1.1\support-media-compat-26.1.0.aar\4d5bf65c98f8ed79d1e194afdb6012a3\AndroidManifest.xml:25:5-29:19
MERGED from [com.android.support:support-fragment:26.1.0] C:\Users\hwahyudi\.gradle\caches\transforms-1\files-1.1\support-fragment-26.1.0.aar\5c20df0b0dc6958c530b8827f20e5a84\AndroidManifest.xml:25:5-29:19
MERGED from [com.android.support:support-fragment:26.1.0] C:\Users\hwahyudi\.gradle\caches\transforms-1\files-1.1\support-fragment-26.1.0.aar\5c20df0b0dc6958c530b8827f20e5a84\AndroidManifest.xml:25:5-29:19
MERGED from [com.android.support:support-core-utils:26.1.0] C:\Users\hwahyudi\.gradle\caches\transforms-1\files-1.1\support-core-utils-26.1.0.aar\d4fefee02956713761e37cb352a4944b\AndroidManifest.xml:25:5-29:19
MERGED from [com.android.support:support-core-utils:26.1.0] C:\Users\hwahyudi\.gradle\caches\transforms-1\files-1.1\support-core-utils-26.1.0.aar\d4fefee02956713761e37cb352a4944b\AndroidManifest.xml:25:5-29:19
MERGED from [com.android.support:support-core-ui:26.1.0] C:\Users\hwahyudi\.gradle\caches\transforms-1\files-1.1\support-core-ui-26.1.0.aar\6d901cd8a825ba95537b987b4426e930\AndroidManifest.xml:25:5-29:19
MERGED from [com.android.support:support-core-ui:26.1.0] C:\Users\hwahyudi\.gradle\caches\transforms-1\files-1.1\support-core-ui-26.1.0.aar\6d901cd8a825ba95537b987b4426e930\AndroidManifest.xml:25:5-29:19
MERGED from [com.android.support:support-compat:26.1.0] C:\Users\hwahyudi\.gradle\caches\transforms-1\files-1.1\support-compat-26.1.0.aar\fb1c7ba8f398b3b6c2c0c0d0543994c4\AndroidManifest.xml:25:5-29:19
MERGED from [com.android.support:support-compat:26.1.0] C:\Users\hwahyudi\.gradle\caches\transforms-1\files-1.1\support-compat-26.1.0.aar\fb1c7ba8f398b3b6c2c0c0d0543994c4\AndroidManifest.xml:25:5-29:19
MERGED from [android.arch.lifecycle:runtime:1.0.0] C:\Users\hwahyudi\.gradle\caches\transforms-1\files-1.1\runtime-1.0.0.aar\e17ddab264a8963c44a1c3bcd1d2d0a5\AndroidManifest.xml:24:5-28:19
MERGED from [android.arch.lifecycle:runtime:1.0.0] C:\Users\hwahyudi\.gradle\caches\transforms-1\files-1.1\runtime-1.0.0.aar\e17ddab264a8963c44a1c3bcd1d2d0a5\AndroidManifest.xml:24:5-28:19
	android:supportsRtl
		ADDED from D:\Workspace\others\android\androidkejarxl\android-fundamentals-apps-v2\SimpleCalcTest\app\src\main\AndroidManifest.xml:24:9-35
	android:label
		ADDED from D:\Workspace\others\android\androidkejarxl\android-fundamentals-apps-v2\SimpleCalcTest\app\src\main\AndroidManifest.xml:23:9-41
	android:icon
		ADDED from D:\Workspace\others\android\androidkejarxl\android-fundamentals-apps-v2\SimpleCalcTest\app\src\main\AndroidManifest.xml:22:9-43
	android:allowBackup
		ADDED from D:\Workspace\others\android\androidkejarxl\android-fundamentals-apps-v2\SimpleCalcTest\app\src\main\AndroidManifest.xml:21:9-35
	android:theme
		ADDED from D:\Workspace\others\android\androidkejarxl\android-fundamentals-apps-v2\SimpleCalcTest\app\src\main\AndroidManifest.xml:25:9-40
activity#com.example.android.SimpleCalcTest.MainActivity
ADDED from D:\Workspace\others\android\androidkejarxl\android-fundamentals-apps-v2\SimpleCalcTest\app\src\main\AndroidManifest.xml:26:9-31:20
	android:name
		ADDED from D:\Workspace\others\android\androidkejarxl\android-fundamentals-apps-v2\SimpleCalcTest\app\src\main\AndroidManifest.xml:26:19-81
intent-filter#action:name:android.intent.action.MAIN+category:name:android.intent.category.LAUNCHER
ADDED from D:\Workspace\others\android\androidkejarxl\android-fundamentals-apps-v2\SimpleCalcTest\app\src\main\AndroidManifest.xml:27:13-30:29
action#android.intent.action.MAIN
ADDED from D:\Workspace\others\android\androidkejarxl\android-fundamentals-apps-v2\SimpleCalcTest\app\src\main\AndroidManifest.xml:28:17-69
	android:name
		ADDED from D:\Workspace\others\android\androidkejarxl\android-fundamentals-apps-v2\SimpleCalcTest\app\src\main\AndroidManifest.xml:28:25-66
category#android.intent.category.LAUNCHER
ADDED from D:\Workspace\others\android\androidkejarxl\android-fundamentals-apps-v2\SimpleCalcTest\app\src\main\AndroidManifest.xml:29:17-77
	android:name
		ADDED from D:\Workspace\others\android\androidkejarxl\android-fundamentals-apps-v2\SimpleCalcTest\app\src\main\AndroidManifest.xml:29:27-74
uses-sdk
INJECTED from D:\Workspace\others\android\androidkejarxl\android-fundamentals-apps-v2\SimpleCalcTest\app\src\main\AndroidManifest.xml reason: use-sdk injection requested
INJECTED from D:\Workspace\others\android\androidkejarxl\android-fundamentals-apps-v2\SimpleCalcTest\app\src\main\AndroidManifest.xml
INJECTED from D:\Workspace\others\android\androidkejarxl\android-fundamentals-apps-v2\SimpleCalcTest\app\src\main\AndroidManifest.xml
MERGED from [com.android.support:appcompat-v7:26.1.0] C:\Users\hwahyudi\.gradle\caches\transforms-1\files-1.1\appcompat-v7-26.1.0.aar\679403e083377848433831022a31082f\AndroidManifest.xml:21:5-23:78
MERGED from [com.android.support:appcompat-v7:26.1.0] C:\Users\hwahyudi\.gradle\caches\transforms-1\files-1.1\appcompat-v7-26.1.0.aar\679403e083377848433831022a31082f\AndroidManifest.xml:21:5-23:78
MERGED from [com.android.support.constraint:constraint-layout:1.0.2] C:\Users\hwahyudi\.gradle\caches\transforms-1\files-1.1\constraint-layout-1.0.2.aar\327e9426568c6aec64c59a7acd061932\AndroidManifest.xml:5:5-7:41
MERGED from [com.android.support.constraint:constraint-layout:1.0.2] C:\Users\hwahyudi\.gradle\caches\transforms-1\files-1.1\constraint-layout-1.0.2.aar\327e9426568c6aec64c59a7acd061932\AndroidManifest.xml:5:5-7:41
MERGED from [com.android.support:animated-vector-drawable:26.1.0] C:\Users\hwahyudi\.gradle\caches\transforms-1\files-1.1\animated-vector-drawable-26.1.0.aar\caca83289075bfd560489ae0c3d827fe\AndroidManifest.xml:20:5-44
MERGED from [com.android.support:animated-vector-drawable:26.1.0] C:\Users\hwahyudi\.gradle\caches\transforms-1\files-1.1\animated-vector-drawable-26.1.0.aar\caca83289075bfd560489ae0c3d827fe\AndroidManifest.xml:20:5-44
MERGED from [com.android.support:support-vector-drawable:26.1.0] C:\Users\hwahyudi\.gradle\caches\transforms-1\files-1.1\support-vector-drawable-26.1.0.aar\49efdd66a77f9b0a62c5d067e05e5604\AndroidManifest.xml:20:5-44
MERGED from [com.android.support:support-vector-drawable:26.1.0] C:\Users\hwahyudi\.gradle\caches\transforms-1\files-1.1\support-vector-drawable-26.1.0.aar\49efdd66a77f9b0a62c5d067e05e5604\AndroidManifest.xml:20:5-44
MERGED from [com.android.support:support-v4:26.1.0] C:\Users\hwahyudi\.gradle\caches\transforms-1\files-1.1\support-v4-26.1.0.aar\3b75dfa4794ed1a8f5d5dc58a72bb2d8\AndroidManifest.xml:21:5-23:54
MERGED from [com.android.support:support-v4:26.1.0] C:\Users\hwahyudi\.gradle\caches\transforms-1\files-1.1\support-v4-26.1.0.aar\3b75dfa4794ed1a8f5d5dc58a72bb2d8\AndroidManifest.xml:21:5-23:54
MERGED from [com.android.support:support-media-compat:26.1.0] C:\Users\hwahyudi\.gradle\caches\transforms-1\files-1.1\support-media-compat-26.1.0.aar\4d5bf65c98f8ed79d1e194afdb6012a3\AndroidManifest.xml:21:5-23:63
MERGED from [com.android.support:support-media-compat:26.1.0] C:\Users\hwahyudi\.gradle\caches\transforms-1\files-1.1\support-media-compat-26.1.0.aar\4d5bf65c98f8ed79d1e194afdb6012a3\AndroidManifest.xml:21:5-23:63
MERGED from [com.android.support:support-fragment:26.1.0] C:\Users\hwahyudi\.gradle\caches\transforms-1\files-1.1\support-fragment-26.1.0.aar\5c20df0b0dc6958c530b8827f20e5a84\AndroidManifest.xml:21:5-23:60
MERGED from [com.android.support:support-fragment:26.1.0] C:\Users\hwahyudi\.gradle\caches\transforms-1\files-1.1\support-fragment-26.1.0.aar\5c20df0b0dc6958c530b8827f20e5a84\AndroidManifest.xml:21:5-23:60
MERGED from [com.android.support:support-core-utils:26.1.0] C:\Users\hwahyudi\.gradle\caches\transforms-1\files-1.1\support-core-utils-26.1.0.aar\d4fefee02956713761e37cb352a4944b\AndroidManifest.xml:21:5-23:61
MERGED from [com.android.support:support-core-utils:26.1.0] C:\Users\hwahyudi\.gradle\caches\transforms-1\files-1.1\support-core-utils-26.1.0.aar\d4fefee02956713761e37cb352a4944b\AndroidManifest.xml:21:5-23:61
MERGED from [com.android.support:support-core-ui:26.1.0] C:\Users\hwahyudi\.gradle\caches\transforms-1\files-1.1\support-core-ui-26.1.0.aar\6d901cd8a825ba95537b987b4426e930\AndroidManifest.xml:21:5-23:58
MERGED from [com.android.support:support-core-ui:26.1.0] C:\Users\hwahyudi\.gradle\caches\transforms-1\files-1.1\support-core-ui-26.1.0.aar\6d901cd8a825ba95537b987b4426e930\AndroidManifest.xml:21:5-23:58
MERGED from [com.android.support:support-compat:26.1.0] C:\Users\hwahyudi\.gradle\caches\transforms-1\files-1.1\support-compat-26.1.0.aar\fb1c7ba8f398b3b6c2c0c0d0543994c4\AndroidManifest.xml:21:5-23:58
MERGED from [com.android.support:support-compat:26.1.0] C:\Users\hwahyudi\.gradle\caches\transforms-1\files-1.1\support-compat-26.1.0.aar\fb1c7ba8f398b3b6c2c0c0d0543994c4\AndroidManifest.xml:21:5-23:58
MERGED from [android.arch.lifecycle:runtime:1.0.0] C:\Users\hwahyudi\.gradle\caches\transforms-1\files-1.1\runtime-1.0.0.aar\e17ddab264a8963c44a1c3bcd1d2d0a5\AndroidManifest.xml:20:5-22:41
MERGED from [android.arch.lifecycle:runtime:1.0.0] C:\Users\hwahyudi\.gradle\caches\transforms-1\files-1.1\runtime-1.0.0.aar\e17ddab264a8963c44a1c3bcd1d2d0a5\AndroidManifest.xml:20:5-22:41
INJECTED from D:\Workspace\others\android\androidkejarxl\android-fundamentals-apps-v2\SimpleCalcTest\app\src\main\AndroidManifest.xml
INJECTED from D:\Workspace\others\android\androidkejarxl\android-fundamentals-apps-v2\SimpleCalcTest\app\src\main\AndroidManifest.xml
	tools:overrideLibrary
		ADDED from [com.android.support:appcompat-v7:26.1.0] C:\Users\hwahyudi\.gradle\caches\transforms-1\files-1.1\appcompat-v7-26.1.0.aar\679403e083377848433831022a31082f\AndroidManifest.xml:23:9-75
	android:targetSdkVersion
		INJECTED from D:\Workspace\others\android\androidkejarxl\android-fundamentals-apps-v2\SimpleCalcTest\app\src\main\AndroidManifest.xml
		ADDED from D:\Workspace\others\android\androidkejarxl\android-fundamentals-apps-v2\SimpleCalcTest\app\src\main\AndroidManifest.xml
		INJECTED from D:\Workspace\others\android\androidkejarxl\android-fundamentals-apps-v2\SimpleCalcTest\app\src\main\AndroidManifest.xml
	android:minSdkVersion
		INJECTED from D:\Workspace\others\android\androidkejarxl\android-fundamentals-apps-v2\SimpleCalcTest\app\src\main\AndroidManifest.xml
		ADDED from D:\Workspace\others\android\androidkejarxl\android-fundamentals-apps-v2\SimpleCalcTest\app\src\main\AndroidManifest.xml
		INJECTED from D:\Workspace\others\android\androidkejarxl\android-fundamentals-apps-v2\SimpleCalcTest\app\src\main\AndroidManifest.xml
meta-data#android.support.VERSION
ADDED from [com.android.support:appcompat-v7:26.1.0] C:\Users\hwahyudi\.gradle\caches\transforms-1\files-1.1\appcompat-v7-26.1.0.aar\679403e083377848433831022a31082f\AndroidManifest.xml:26:9-28:38
MERGED from [com.android.support:animated-vector-drawable:26.1.0] C:\Users\hwahyudi\.gradle\caches\transforms-1\files-1.1\animated-vector-drawable-26.1.0.aar\caca83289075bfd560489ae0c3d827fe\AndroidManifest.xml:23:9-25:38
MERGED from [com.android.support:animated-vector-drawable:26.1.0] C:\Users\hwahyudi\.gradle\caches\transforms-1\files-1.1\animated-vector-drawable-26.1.0.aar\caca83289075bfd560489ae0c3d827fe\AndroidManifest.xml:23:9-25:38
MERGED from [com.android.support:support-vector-drawable:26.1.0] C:\Users\hwahyudi\.gradle\caches\transforms-1\files-1.1\support-vector-drawable-26.1.0.aar\49efdd66a77f9b0a62c5d067e05e5604\AndroidManifest.xml:23:9-25:38
MERGED from [com.android.support:support-vector-drawable:26.1.0] C:\Users\hwahyudi\.gradle\caches\transforms-1\files-1.1\support-vector-drawable-26.1.0.aar\49efdd66a77f9b0a62c5d067e05e5604\AndroidManifest.xml:23:9-25:38
MERGED from [com.android.support:support-v4:26.1.0] C:\Users\hwahyudi\.gradle\caches\transforms-1\files-1.1\support-v4-26.1.0.aar\3b75dfa4794ed1a8f5d5dc58a72bb2d8\AndroidManifest.xml:26:9-28:38
MERGED from [com.android.support:support-v4:26.1.0] C:\Users\hwahyudi\.gradle\caches\transforms-1\files-1.1\support-v4-26.1.0.aar\3b75dfa4794ed1a8f5d5dc58a72bb2d8\AndroidManifest.xml:26:9-28:38
MERGED from [com.android.support:support-media-compat:26.1.0] C:\Users\hwahyudi\.gradle\caches\transforms-1\files-1.1\support-media-compat-26.1.0.aar\4d5bf65c98f8ed79d1e194afdb6012a3\AndroidManifest.xml:26:9-28:38
MERGED from [com.android.support:support-media-compat:26.1.0] C:\Users\hwahyudi\.gradle\caches\transforms-1\files-1.1\support-media-compat-26.1.0.aar\4d5bf65c98f8ed79d1e194afdb6012a3\AndroidManifest.xml:26:9-28:38
MERGED from [com.android.support:support-fragment:26.1.0] C:\Users\hwahyudi\.gradle\caches\transforms-1\files-1.1\support-fragment-26.1.0.aar\5c20df0b0dc6958c530b8827f20e5a84\AndroidManifest.xml:26:9-28:38
MERGED from [com.android.support:support-fragment:26.1.0] C:\Users\hwahyudi\.gradle\caches\transforms-1\files-1.1\support-fragment-26.1.0.aar\5c20df0b0dc6958c530b8827f20e5a84\AndroidManifest.xml:26:9-28:38
MERGED from [com.android.support:support-core-utils:26.1.0] C:\Users\hwahyudi\.gradle\caches\transforms-1\files-1.1\support-core-utils-26.1.0.aar\d4fefee02956713761e37cb352a4944b\AndroidManifest.xml:26:9-28:38
MERGED from [com.android.support:support-core-utils:26.1.0] C:\Users\hwahyudi\.gradle\caches\transforms-1\files-1.1\support-core-utils-26.1.0.aar\d4fefee02956713761e37cb352a4944b\AndroidManifest.xml:26:9-28:38
MERGED from [com.android.support:support-core-ui:26.1.0] C:\Users\hwahyudi\.gradle\caches\transforms-1\files-1.1\support-core-ui-26.1.0.aar\6d901cd8a825ba95537b987b4426e930\AndroidManifest.xml:26:9-28:38
MERGED from [com.android.support:support-core-ui:26.1.0] C:\Users\hwahyudi\.gradle\caches\transforms-1\files-1.1\support-core-ui-26.1.0.aar\6d901cd8a825ba95537b987b4426e930\AndroidManifest.xml:26:9-28:38
MERGED from [com.android.support:support-compat:26.1.0] C:\Users\hwahyudi\.gradle\caches\transforms-1\files-1.1\support-compat-26.1.0.aar\fb1c7ba8f398b3b6c2c0c0d0543994c4\AndroidManifest.xml:26:9-28:38
MERGED from [com.android.support:support-compat:26.1.0] C:\Users\hwahyudi\.gradle\caches\transforms-1\files-1.1\support-compat-26.1.0.aar\fb1c7ba8f398b3b6c2c0c0d0543994c4\AndroidManifest.xml:26:9-28:38
	android:value
		ADDED from [com.android.support:appcompat-v7:26.1.0] C:\Users\hwahyudi\.gradle\caches\transforms-1\files-1.1\appcompat-v7-26.1.0.aar\679403e083377848433831022a31082f\AndroidManifest.xml:28:13-35
	android:name
		ADDED from [com.android.support:appcompat-v7:26.1.0] C:\Users\hwahyudi\.gradle\caches\transforms-1\files-1.1\appcompat-v7-26.1.0.aar\679403e083377848433831022a31082f\AndroidManifest.xml:27:13-51
meta-data#android.arch.lifecycle.VERSION
ADDED from [android.arch.lifecycle:runtime:1.0.0] C:\Users\hwahyudi\.gradle\caches\transforms-1\files-1.1\runtime-1.0.0.aar\e17ddab264a8963c44a1c3bcd1d2d0a5\AndroidManifest.xml:25:9-27:47
	android:value
		ADDED from [android.arch.lifecycle:runtime:1.0.0] C:\Users\hwahyudi\.gradle\caches\transforms-1\files-1.1\runtime-1.0.0.aar\e17ddab264a8963c44a1c3bcd1d2d0a5\AndroidManifest.xml:27:13-44
	android:name
		ADDED from [android.arch.lifecycle:runtime:1.0.0] C:\Users\hwahyudi\.gradle\caches\transforms-1\files-1.1\runtime-1.0.0.aar\e17ddab264a8963c44a1c3bcd1d2d0a5\AndroidManifest.xml:26:13-58
